[2017-12-07 10:15:24] / ( app=index&wwi=index ) 
ERR: Db Error: Table 'shopwwi.shopwwi_web_channel' doesn't exist
SELECT * FROM `shopwwi_web_channel` WHERE ( channel_show = '1' ) ORDER BY convert(channel_name using gbk) asc,channel_id desc LIMIT 1000  
[2017-12-07 10:15:24] / ( app=index&wwi=index ) 
ERR: Db Error: Table 'shopwwi.shopwwi_groupbuy' doesn't exist
SELECT * FROM `shopwwi_groupbuy` WHERE ( state = '20' ) AND ( start_time < '1512612924' ) AND ( end_time > '1512612924' ) ORDER BY recommended desc LIMIT 4  
[2017-12-07 10:15:24] / ( app=index&wwi=index ) 
ERR: Db Error: Table 'shopwwi.shopwwi_tzx_special' doesn't exist
SELECT * FROM `shopwwi_tzx_special` WHERE ( special_type = '2' ) ORDER BY special_id desc LIMIT 3  
[2017-12-07 10:15:24] / ( app=index&wwi=index ) 
ERR: Db Error: Table 'shopwwi.shopwwi_p_xianshi' doesn't exist
SELECT COUNT(*) AS nc_count FROM `shopwwi_p_xianshi` WHERE ( state = '1' ) AND ( recommended = '1' ) AND ( start_time <= '1512612924' ) AND ( end_time > '1512612924' ) LIMIT 1  
[2017-12-07 10:15:24] / ( app=index&wwi=index ) 
ERR: Db Error: Table 'shopwwi.shopwwi_p_xianshi' doesn't exist
SELECT * FROM `shopwwi_p_xianshi` WHERE ( state = '1' ) AND ( recommended = '1' ) AND ( start_time <= '1512612924' ) AND ( end_time > '1512612924' ) ORDER BY state desc, end_time asc LIMIT 0,6  
[2017-12-07 10:15:24] / ( app=index&wwi=index ) 
ERR: Db Error: Table 'shopwwi.shopwwi_brand' doesn't exist
SELECT * FROM `shopwwi_brand` WHERE ( brand_id IN ('256','257','259','258','260','261','262','263','264','267','268','269','270','271') ) LIMIT 1000  
[2017-12-07 10:15:24] / ( app=index&wwi=index ) 
ERR: Db Error: Table 'shopwwi.shopwwi_store' doesn't exist
SELECT * FROM `shopwwi_store` WHERE ( store_id IN ('1','3','4','5') ) LIMIT 1000  
[2017-12-07 10:15:24] / ( app=index&wwi=index ) 
ERR: Db Error: Table 'shopwwi.shopwwi_goods' doesn't exist
SELECT * FROM `shopwwi_goods` WHERE ( goods_id IN ('100092','100093','100094','100095','100096') ) LIMIT 1000  
[2017-12-07 10:15:24] / ( app=index&wwi=index ) 
ERR: Db Error: Table 'shopwwi.shopwwi_evaluate_goods' doesn't exist
SELECT COUNT(*) AS nc_count FROM `shopwwi_evaluate_goods` LIMIT 1  
[2017-12-07 10:15:24] / ( app=index&wwi=index ) 
ERR: Db Error: Table 'shopwwi.shopwwi_evaluate_goods' doesn't exist
SELECT * FROM `shopwwi_evaluate_goods` ORDER BY geval_id desc LIMIT 0,6  
[2017-12-07 10:15:24] / ( app=index&wwi=index ) 
ERR: Db Error: Table 'shopwwi.shopwwi_web' doesn't exist
SELECT * FROM `shopwwi_web` WHERE ( web_show = '1' ) AND ( web_page LIKE 'index%' ) ORDER BY web_sort LIMIT 1000  
[2017-12-07 10:15:24] /mall/index.php ( app=index&wwi=index ) 
ERR: Db Error: Table 'shopwwi.shopwwi_web_channel' doesn't exist
SELECT * FROM `shopwwi_web_channel` WHERE ( channel_show = '1' ) ORDER BY convert(channel_name using gbk) asc,channel_id desc LIMIT 1000  
[2017-12-07 10:15:24] /mall/index.php ( app=index&wwi=index ) 
ERR: Db Error: Table 'shopwwi.shopwwi_groupbuy' doesn't exist
SELECT * FROM `shopwwi_groupbuy` WHERE ( state = '20' ) AND ( start_time < '1512612924' ) AND ( end_time > '1512612924' ) ORDER BY recommended desc LIMIT 4  
[2017-12-07 10:15:24] /mall/index.php ( app=index&wwi=index ) 
ERR: Db Error: Table 'shopwwi.shopwwi_tzx_special' doesn't exist
SELECT * FROM `shopwwi_tzx_special` WHERE ( special_type = '2' ) ORDER BY special_id desc LIMIT 3  
[2017-12-07 10:15:24] /mall/index.php ( app=index&wwi=index ) 
ERR: Db Error: Table 'shopwwi.shopwwi_p_xianshi' doesn't exist
SELECT COUNT(*) AS nc_count FROM `shopwwi_p_xianshi` WHERE ( state = '1' ) AND ( recommended = '1' ) AND ( start_time <= '1512612924' ) AND ( end_time > '1512612924' ) LIMIT 1  
[2017-12-07 10:15:24] /mall/index.php ( app=index&wwi=index ) 
ERR: Db Error: Table 'shopwwi.shopwwi_p_xianshi' doesn't exist
SELECT * FROM `shopwwi_p_xianshi` WHERE ( state = '1' ) AND ( recommended = '1' ) AND ( start_time <= '1512612924' ) AND ( end_time > '1512612924' ) ORDER BY state desc, end_time asc LIMIT 0,6  
[2017-12-07 10:15:24] /mall/index.php ( app=index&wwi=index ) 
ERR: Db Error: Table 'shopwwi.shopwwi_brand' doesn't exist
SELECT * FROM `shopwwi_brand` WHERE ( brand_id IN ('256','257','259','258','260','261','262','263','264','267','268','269','270','271') ) LIMIT 1000  
[2017-12-07 10:15:24] /mall/index.php ( app=index&wwi=index ) 
ERR: Db Error: Table 'shopwwi.shopwwi_store' doesn't exist
SELECT * FROM `shopwwi_store` WHERE ( store_id IN ('1','3','4','5') ) LIMIT 1000  
[2017-12-07 10:15:24] /mall/index.php ( app=index&wwi=index ) 
ERR: Db Error: Table 'shopwwi.shopwwi_goods' doesn't exist
SELECT * FROM `shopwwi_goods` WHERE ( goods_id IN ('100092','100093','100094','100095','100096') ) LIMIT 1000  
[2017-12-07 10:15:24] /mall/index.php ( app=index&wwi=index ) 
ERR: Db Error: Table 'shopwwi.shopwwi_evaluate_goods' doesn't exist
SELECT COUNT(*) AS nc_count FROM `shopwwi_evaluate_goods` LIMIT 1  
[2017-12-07 10:15:24] /mall/index.php ( app=index&wwi=index ) 
ERR: Db Error: Table 'shopwwi.shopwwi_evaluate_goods' doesn't exist
SELECT * FROM `shopwwi_evaluate_goods` ORDER BY geval_id desc LIMIT 0,6  
[2017-12-07 10:15:24] /mall/index.php ( app=index&wwi=index ) 
ERR: Db Error: Table 'shopwwi.shopwwi_web' doesn't exist
SELECT * FROM `shopwwi_web` WHERE ( web_show = '1' ) AND ( web_page LIKE 'index%' ) ORDER BY web_sort LIMIT 1000  
[2017-12-07 10:15:39] /mall/index.php ( app=index&wwi=index ) 
ERR: Db Error: Table 'shopwwi.shopwwi_web_channel' doesn't exist
SELECT * FROM `shopwwi_web_channel` WHERE ( channel_show = '1' ) ORDER BY convert(channel_name using gbk) asc,channel_id desc LIMIT 1000  
[2017-12-07 10:15:39] /mall/index.php ( app=index&wwi=index ) 
ERR: Db Error: Table 'shopwwi.shopwwi_groupbuy' doesn't exist
SELECT * FROM `shopwwi_groupbuy` WHERE ( state = '20' ) AND ( start_time < '1512612939' ) AND ( end_time > '1512612939' ) ORDER BY recommended desc LIMIT 4  
[2017-12-07 10:15:39] /mall/index.php ( app=index&wwi=index ) 
ERR: Db Error: Table 'shopwwi.shopwwi_tzx_special' doesn't exist
SELECT * FROM `shopwwi_tzx_special` WHERE ( special_type = '2' ) ORDER BY special_id desc LIMIT 3  
[2017-12-07 10:15:39] /mall/index.php ( app=index&wwi=index ) 
ERR: Db Error: Table 'shopwwi.shopwwi_p_xianshi' doesn't exist
SELECT COUNT(*) AS nc_count FROM `shopwwi_p_xianshi` WHERE ( state = '1' ) AND ( recommended = '1' ) AND ( start_time <= '1512612939' ) AND ( end_time > '1512612939' ) LIMIT 1  
[2017-12-07 10:15:39] /mall/index.php ( app=index&wwi=index ) 
ERR: Db Error: Table 'shopwwi.shopwwi_p_xianshi' doesn't exist
SELECT * FROM `shopwwi_p_xianshi` WHERE ( state = '1' ) AND ( recommended = '1' ) AND ( start_time <= '1512612939' ) AND ( end_time > '1512612939' ) ORDER BY state desc, end_time asc LIMIT 0,6  
[2017-12-07 10:15:39] /mall/index.php ( app=index&wwi=index ) 
ERR: Db Error: Table 'shopwwi.shopwwi_brand' doesn't exist
SELECT * FROM `shopwwi_brand` WHERE ( brand_id IN ('256','257','259','258','260','261','262','263','264','267','268','269','270','271') ) LIMIT 1000  
[2017-12-07 10:15:39] /mall/index.php ( app=index&wwi=index ) 
ERR: Db Error: Table 'shopwwi.shopwwi_store' doesn't exist
SELECT * FROM `shopwwi_store` WHERE ( store_id IN ('1','3','4','5') ) LIMIT 1000  
[2017-12-07 10:15:39] /mall/index.php ( app=index&wwi=index ) 
ERR: Db Error: Table 'shopwwi.shopwwi_goods' doesn't exist
SELECT * FROM `shopwwi_goods` WHERE ( goods_id IN ('100092','100093','100094','100095','100096') ) LIMIT 1000  
[2017-12-07 10:15:39] /mall/index.php ( app=index&wwi=index ) 
ERR: Db Error: Table 'shopwwi.shopwwi_evaluate_goods' doesn't exist
SELECT COUNT(*) AS nc_count FROM `shopwwi_evaluate_goods` LIMIT 1  
[2017-12-07 10:15:39] /mall/index.php ( app=index&wwi=index ) 
ERR: Db Error: Table 'shopwwi.shopwwi_evaluate_goods' doesn't exist
SELECT * FROM `shopwwi_evaluate_goods` ORDER BY geval_id desc LIMIT 0,6  
[2017-12-07 10:15:39] /mall/index.php ( app=index&wwi=index ) 
ERR: Db Error: Table 'shopwwi.shopwwi_web' doesn't exist
SELECT * FROM `shopwwi_web` WHERE ( web_show = '1' ) AND ( web_page LIKE 'index%' ) ORDER BY web_sort LIMIT 1000  
[2017-12-07 10:15:52] /mall/index.php ( app=index&wwi=index ) 
ERR: Db Error: Table 'shopwwi.shopwwi_web_channel' doesn't exist
SELECT * FROM `shopwwi_web_channel` WHERE ( channel_show = '1' ) ORDER BY convert(channel_name using gbk) asc,channel_id desc LIMIT 1000  
[2017-12-07 10:15:52] /mall/index.php ( app=index&wwi=index ) 
ERR: Db Error: Table 'shopwwi.shopwwi_groupbuy' doesn't exist
SELECT * FROM `shopwwi_groupbuy` WHERE ( state = '20' ) AND ( start_time < '1512612952' ) AND ( end_time > '1512612952' ) ORDER BY recommended desc LIMIT 4  
[2017-12-07 10:15:52] /mall/index.php ( app=index&wwi=index ) 
ERR: Db Error: Table 'shopwwi.shopwwi_tzx_special' doesn't exist
SELECT * FROM `shopwwi_tzx_special` WHERE ( special_type = '2' ) ORDER BY special_id desc LIMIT 3  
[2017-12-07 10:15:52] /mall/index.php ( app=index&wwi=index ) 
ERR: Db Error: Table 'shopwwi.shopwwi_p_xianshi' doesn't exist
SELECT COUNT(*) AS nc_count FROM `shopwwi_p_xianshi` WHERE ( state = '1' ) AND ( recommended = '1' ) AND ( start_time <= '1512612952' ) AND ( end_time > '1512612952' ) LIMIT 1  
[2017-12-07 10:15:52] /mall/index.php ( app=index&wwi=index ) 
ERR: Db Error: Table 'shopwwi.shopwwi_p_xianshi' doesn't exist
SELECT * FROM `shopwwi_p_xianshi` WHERE ( state = '1' ) AND ( recommended = '1' ) AND ( start_time <= '1512612952' ) AND ( end_time > '1512612952' ) ORDER BY state desc, end_time asc LIMIT 0,6  
[2017-12-07 10:15:52] /mall/index.php ( app=index&wwi=index ) 
ERR: Db Error: Table 'shopwwi.shopwwi_brand' doesn't exist
SELECT * FROM `shopwwi_brand` WHERE ( brand_id IN ('256','257','259','258','260','261','262','263','264','267','268','269','270','271') ) LIMIT 1000  
[2017-12-07 10:15:52] /mall/index.php ( app=index&wwi=index ) 
ERR: Db Error: Table 'shopwwi.shopwwi_store' doesn't exist
SELECT * FROM `shopwwi_store` WHERE ( store_id IN ('1','3','4','5') ) LIMIT 1000  
[2017-12-07 10:15:52] /mall/index.php ( app=index&wwi=index ) 
ERR: Db Error: Table 'shopwwi.shopwwi_goods' doesn't exist
SELECT * FROM `shopwwi_goods` WHERE ( goods_id IN ('100092','100093','100094','100095','100096') ) LIMIT 1000  
[2017-12-07 10:15:52] /mall/index.php ( app=index&wwi=index ) 
ERR: Db Error: Table 'shopwwi.shopwwi_evaluate_goods' doesn't exist
SELECT COUNT(*) AS nc_count FROM `shopwwi_evaluate_goods` LIMIT 1  
[2017-12-07 10:15:52] /mall/index.php ( app=index&wwi=index ) 
ERR: Db Error: Table 'shopwwi.shopwwi_evaluate_goods' doesn't exist
SELECT * FROM `shopwwi_evaluate_goods` ORDER BY geval_id desc LIMIT 0,6  
[2017-12-07 10:15:52] /mall/index.php ( app=index&wwi=index ) 
ERR: Db Error: Table 'shopwwi.shopwwi_web' doesn't exist
SELECT * FROM `shopwwi_web` WHERE ( web_show = '1' ) AND ( web_page LIKE 'index%' ) ORDER BY web_sort LIMIT 1000  
[2017-12-07 10:15:57] /mall/s-470-0-0-0-0-0-0-0-0.html ( app=search&wwi=index ) 
ERR: Db Error: Table 'shopwwi.shopwwi_web_channel' doesn't exist
SELECT * FROM `shopwwi_web_channel` WHERE ( channel_show = '1' ) ORDER BY convert(channel_name using gbk) asc,channel_id desc LIMIT 1000  
[2017-12-07 10:15:57] /mall/s-470-0-0-0-0-0-0-0-0.html ( app=search&wwi=index ) 
ERR: Db Error: Table 'shopwwi.shopwwi_goods' doesn't exist
SELECT count(distinct CONCAT(goods_commonid,',',color_id)) AS nc_count FROM `shopwwi_goods` WHERE ( gc_id_1 = '470' ) AND ( goods_state = '1' ) AND ( goods_verify = '1' ) LIMIT 1  
[2017-12-07 10:15:57] /mall/s-470-0-0-0-0-0-0-0-0.html ( app=search&wwi=index ) 
ERR: Db Error: Table 'shopwwi.shopwwi_goods_common' doesn't exist
SELECT COUNT(*) AS nc_count FROM `shopwwi_goods_common` WHERE ( gc_id_1 = '470' ) LIMIT 1  
[2017-12-07 10:15:57] /mall/s-470-0-0-0-0-0-0-0-0.html ( app=search&wwi=index ) 
ERR: Db Error: Table 'shopwwi.shopwwi_goods' doesn't exist
SELECT * FROM `shopwwi_goods` WHERE ( gc_id_1 = '470' ) AND ( goods_state = '1' ) AND ( goods_verify = '1' ) ORDER BY goods_salenum desc LIMIT 5  
[2017-12-07 10:15:57] /mall/templates/default/images/2014mall_background_img.png ( app=index&wwi=index ) 
ERR: Db Error: Table 'shopwwi.shopwwi_web_channel' doesn't exist
SELECT * FROM `shopwwi_web_channel` WHERE ( channel_show = '1' ) ORDER BY convert(channel_name using gbk) asc,channel_id desc LIMIT 1000  
[2017-12-07 10:15:57] /mall/templates/default/images/2014mall_background_img.png ( app=index&wwi=index ) 
ERR: Db Error: Table 'shopwwi.shopwwi_groupbuy' doesn't exist
SELECT * FROM `shopwwi_groupbuy` WHERE ( state = '20' ) AND ( start_time < '1512612957' ) AND ( end_time > '1512612957' ) ORDER BY recommended desc LIMIT 4  
[2017-12-07 10:15:57] /mall/templates/default/images/2014mall_background_img.png ( app=index&wwi=index ) 
ERR: Db Error: Table 'shopwwi.shopwwi_tzx_special' doesn't exist
SELECT * FROM `shopwwi_tzx_special` WHERE ( special_type = '2' ) ORDER BY special_id desc LIMIT 3  
[2017-12-07 10:15:57] /mall/templates/default/images/2014mall_background_img.png ( app=index&wwi=index ) 
ERR: Db Error: Table 'shopwwi.shopwwi_p_xianshi' doesn't exist
SELECT COUNT(*) AS nc_count FROM `shopwwi_p_xianshi` WHERE ( state = '1' ) AND ( recommended = '1' ) AND ( start_time <= '1512612957' ) AND ( end_time > '1512612957' ) LIMIT 1  
[2017-12-07 10:15:57] /mall/templates/default/images/2014mall_background_img.png ( app=index&wwi=index ) 
ERR: Db Error: Table 'shopwwi.shopwwi_p_xianshi' doesn't exist
SELECT * FROM `shopwwi_p_xianshi` WHERE ( state = '1' ) AND ( recommended = '1' ) AND ( start_time <= '1512612957' ) AND ( end_time > '1512612957' ) ORDER BY state desc, end_time asc LIMIT 0,6  
[2017-12-07 10:15:57] /mall/templates/default/images/2014mall_background_img.png ( app=index&wwi=index ) 
ERR: Db Error: Table 'shopwwi.shopwwi_brand' doesn't exist
SELECT * FROM `shopwwi_brand` WHERE ( brand_id IN ('256','257','259','258','260','261','262','263','264','267','268','269','270','271') ) LIMIT 1000  
[2017-12-07 10:15:57] /mall/templates/default/images/2014mall_background_img.png ( app=index&wwi=index ) 
ERR: Db Error: Table 'shopwwi.shopwwi_store' doesn't exist
SELECT * FROM `shopwwi_store` WHERE ( store_id IN ('1','3','4','5') ) LIMIT 1000  
[2017-12-07 10:15:57] /mall/templates/default/images/2014mall_background_img.png ( app=index&wwi=index ) 
ERR: Db Error: Table 'shopwwi.shopwwi_goods' doesn't exist
SELECT * FROM `shopwwi_goods` WHERE ( goods_id IN ('100092','100093','100094','100095','100096') ) LIMIT 1000  
[2017-12-07 10:15:57] /mall/templates/default/images/2014mall_background_img.png ( app=index&wwi=index ) 
ERR: Db Error: Table 'shopwwi.shopwwi_evaluate_goods' doesn't exist
SELECT COUNT(*) AS nc_count FROM `shopwwi_evaluate_goods` LIMIT 1  
[2017-12-07 10:15:57] /mall/templates/default/images/2014mall_background_img.png ( app=index&wwi=index ) 
ERR: Db Error: Table 'shopwwi.shopwwi_evaluate_goods' doesn't exist
SELECT * FROM `shopwwi_evaluate_goods` ORDER BY geval_id desc LIMIT 0,6  
[2017-12-07 10:15:57] /mall/templates/default/images/2014mall_background_img.png ( app=index&wwi=index ) 
ERR: Db Error: Table 'shopwwi.shopwwi_web' doesn't exist
SELECT * FROM `shopwwi_web` WHERE ( web_show = '1' ) AND ( web_page LIKE 'index%' ) ORDER BY web_sort LIMIT 1000  
[2017-12-07 10:15:58] /mall/index.php?app=compare&wwi=checkcompare ( app=compare&wwi=checkcompare ) 
ERR: Db Error: Table 'shopwwi.shopwwi_web_channel' doesn't exist
SELECT * FROM `shopwwi_web_channel` WHERE ( channel_show = '1' ) ORDER BY convert(channel_name using gbk) asc,channel_id desc LIMIT 1000  
[2017-12-07 10:15:58] /mall/index.php?app=search&wwi=get_booth_goods&cate_id=470 ( app=search&wwi=get_booth_goods ) 
ERR: Db Error: Table 'shopwwi.shopwwi_web_channel' doesn't exist
SELECT * FROM `shopwwi_web_channel` WHERE ( channel_show = '1' ) ORDER BY convert(channel_name using gbk) asc,channel_id desc LIMIT 1000  
[2017-12-07 10:15:58] /mall/index.php?app=search&wwi=get_booth_goods&cate_id=470 ( app=search&wwi=get_booth_goods ) 
ERR: Db Error: Table 'shopwwi.shopwwi_p_booth_goods' doesn't exist
SELECT goods_id FROM `shopwwi_p_booth_goods` WHERE ( gc_id IN ('470','471','472','473','474','475','476','477','478','479','480','481','482','483','484','485','486','487','488','489','490','491','492','493','494','495','496','497','498','499','500','501','502','503','504','505','506','507','508','509','510','511','512','513','514','515','516','517','518','519','520','521','522','523','524','525','526','527','528','529') ) ORDER BY rand() LIMIT 5  
[2017-12-07 10:15:58] /mall/index.php?app=search&wwi=get_gc_goods_recommend&cate_id=470 ( app=search&wwi=get_gc_goods_recommend ) 
ERR: Db Error: Table 'shopwwi.shopwwi_web_channel' doesn't exist
SELECT * FROM `shopwwi_web_channel` WHERE ( channel_show = '1' ) ORDER BY convert(channel_name using gbk) asc,channel_id desc LIMIT 1000  
[2017-12-07 10:15:58] /mall/index.php?app=search&wwi=get_guesslike ( app=search&wwi=get_guesslike ) 
ERR: Db Error: Table 'shopwwi.shopwwi_web_channel' doesn't exist
SELECT * FROM `shopwwi_web_channel` WHERE ( channel_show = '1' ) ORDER BY convert(channel_name using gbk) asc,channel_id desc LIMIT 1000  
[2017-12-07 10:15:58] /mall/index.php?app=search&wwi=get_guesslike ( app=search&wwi=get_guesslike ) 
ERR: Db Error: Table 'shopwwi.shopwwi_p_booth_goods' doesn't exist
SELECT * FROM `shopwwi_p_booth_goods` WHERE ( gc_id IN('') ) AND ( booth_state = '1' ) ORDER BY rand() LIMIT 20  
[2017-12-07 10:15:58] /mall/index.php?app=search&wwi=get_guesslike ( app=search&wwi=get_guesslike ) 
ERR: Db Error: Table 'shopwwi.shopwwi_goods' doesn't exist
SELECT * FROM `shopwwi_goods` WHERE ( goods_id IN('') ) AND ( goods_state = '1' ) AND ( goods_verify = '1' ) ORDER BY goods_id desc LIMIT 1000  
[2017-12-07 10:16:31] /member/index.php?app=login&wwi=check_member&column=ok&user_name=mcrgood ( app=login&wwi=check_member ) 
ERR: Db Error: Table 'shopwwi.shopwwi_member' doesn't exist
SELECT * FROM `shopwwi_member` WHERE ( member_name = 'mcrgood' ) LIMIT 1  
[2017-12-07 10:16:40] /member/index.php?app=login&wwi=check_email&email=maocongren%40sina.com ( app=login&wwi=check_email ) 
ERR: Db Error: Table 'shopwwi.shopwwi_member' doesn't exist
SELECT * FROM `shopwwi_member` WHERE ( member_email = 'maocongren@sina.com' ) LIMIT 1  
